100
5
645109
0
0
51 54 54 54 56
1
0
42 37 37 38 38
2
0
47 47 49 48 45
3
0
41 42 41 42 43
4
0
50 50 50 48 52
5
0
39 38 40 40 42
6
0
66 63 66 65 65
7
0
52 59 54 59 61
8
0
52 53 53 50 50
9
0
62 62 57 60 62
10
0
48 43 44 41 43
11
0
50 47 49 46 51
12
0
63 63 63 63 61
13
0
52 55 57 54 53
14
0
64 61 62 58 62
15
0
40 38 40 41 40
16
0
57 57 63 60 62
17
0
49 48 52 51 53
18
0
39 40 42 44 42
19
0
38 39 37 38 41
20
0
51 53 54 55 52
21
0
43 41 37 36 37
22
0
50 50 46 51 53
23
0
45 47 49 47 45
24
0
47 48 49 48 49
25
0
48 51 48 52 47
26
0
47 47 50 49 46
27
0
66 69 72 63 66
28
0
46 42 49 46 49
29
0
49 46 47 47 46
30
0
50 52 54 54 53
31
0
57 56 58 52 56
32
0
43 42 39 42 39
33
0
46 44 47 43 43
34
0
52 50 49 52 49
35
0
62 59 62 62 60
36
0
42 40 40 39 44
37
0
35 38 38 40 36
38
0
57 55 52 56 57
39
0
63 64 59 61 63
40
0
38 47 41 40 37
41
0
39 44 43 40 39
42
0
48 47 48 47 48
43
0
29 33 29 31 33
44
0
59 56 58 60 62
45
0
50 48 52 44 45
46
0
47 43 44 47 46
47
0
40 40 39 38 39
48
0
69 72 68 68 70
49
0
51 55 52 52 55
50
0
38 38 36 35 34
51
0
58 61 58 58 60
52
0
64 68 63 69 59
53
0
51 46 48 50 45
54
0
53 54 52 53 56
55
0
52 47 50 50 52
56
0
36 35 38 34 35
57
0
64 62 57 61 59
58
0
42 42 45 43 43
59
0
47 48 45 46 48
60
0
52 48 50 52 52
61
0
50 45 51 51 49
62
0
45 47 44 48 46
63
0
61 60 58 58 58
64
0
49 51 52 51 52
65
0
44 39 40 41 41
66
0
43 40 39 38 41
67
0
65 66 70 68 67
68
0
54 48 51 53 50
69
0
79 76 82 84 79
70
0
36 39 38 34 39
71
0
48 47 45 53 46
72
0
45 48 47 49 47
73
0
54 56 51 55 56
74
0
47 48 49 52 50
75
0
54 58 59 60 60
76
0
39 41 36 37 34
77
0
38 41 37 39 40
78
0
61 62 64 63 61
79
0
40 43 41 43 39
80
0
44 45 47 47 47
81
0
48 46 48 48 50
82
0
50 54 53 52 52
83
0
57 53 55 58 53
84
0
59 63 60 57 57
85
0
50 44 47 46 46
86
0
61 62 65 63 59
87
0
55 54 55 49 53
88
0
50 47 45 45 48
89
0
67 66 72 64 69
90
0
48 48 51 47 50
91
0
52 48 52 53 53
92
0
73 71 72 75 79
93
0
44 40 41 43 42
94
0
55 56 52 57 58
95
0
56 56 62 59 64
96
0
41 39 38 43 40
97
0
50 54 47 51 51
98
0
52 55 55 57 54
99
0
48 48 50 44 46
