100
10
994538
0
0
28 57 53 43 65 38 61 37 49 50
1
0
60 48 51 40 45 49 57 49 35 46
2
0
42 29 45 46 47 47 64 36 50 44
3
0
56 45 32 46 55 66 40 78 42 47
4
0
31 59 38 54 60 55 53 36 49 54
5
0
35 56 45 50 30 42 35 53 48 43
6
0
68 46 53 46 54 57 56 42 68 46
7
0
67 42 46 62 44 48 76 47 37 48
8
0
64 61 33 62 61 57 37 80 40 40
9
0
62 59 61 56 40 34 40 43 51 70
10
0
45 54 47 49 54 40 41 51 37 39
11
0
38 68 38 58 53 52 52 40 46 62
12
0
53 55 42 45 48 54 55 71 56 40
13
0
55 46 89 46 66 52 51 37 30 55
14
0
44 70 51 43 58 45 59 56 49 60
15
0
52 69 42 46 40 37 47 41 60 34
16
0
60 48 48 48 48 70 33 56 45 41
17
0
38 28 62 47 38 65 63 58 42 61
18
0
64 61 37 64 51 57 56 35 40 38
19
0
62 44 62 53 58 45 53 55 44 41
20
0
55 34 41 47 45 54 68 64 43 40
21
0
61 54 48 64 50 48 49 39 48 52
22
0
46 40 40 62 41 64 57 41 48 38
23
0
42 46 37 51 53 55 52 76 60 45
24
0
68 60 45 53 52 45 61 55 44 45
25
0
54 66 50 54 54 49 52 55 54 39
26
0
49 53 51 37 39 50 40 39 47 50
27
0
51 40 45 43 54 40 47 64 43 40
28
0
32 54 65 45 39 64 36 48 53 31
29
0
36 49 33 50 46 62 64 45 52 52
30
0
46 61 47 49 56 42 54 50 66 44
31
0
64 50 49 49 50 56 52 62 44 64
32
0
47 52 35 59 36 50 29 58 72 28
33
0
56 46 43 54 38 56 27 59 46 46
34
0
44 40 70 65 54 42 52 38 31 49
35
0
47 42 49 65 48 31 53 50 23 54
36
0
61 34 39 69 65 35 69 34 50 60
37
0
59 62 51 51 53 49 52 47 46 71
38
0
36 50 51 51 52 52 54 50 58 51
39
0
46 64 50 40 39 54 56 57 59 52
40
0
38 54 40 57 37 49 48 39 42 45
41
0
38 61 41 49 59 64 43 54 43 38
42
0
63 51 38 45 48 49 40 43 40 45
43
0
43 47 57 42 34 39 49 40 48 39
44
0
48 66 37 44 52 58 57 68 44 44
45
0
57 37 56 40 48 50 55 36 38 41
46
0
24 66 54 59 46 43 35 53 51 46
47
0
41 45 38 67 48 62 38 57 30 38
48
0
80 67 55 57 67 43 46 42 31 44
49
0
66 24 73 57 44 56 46 73 43 54
50
0
52 58 52 60 50 58 62 62 44 39
51
0
37 36 59 42 52 65 52 63 54 39
52
0
40 35 40 39 60 46 55 62 60 73
53
0
55 75 79 40 77 49 52 67 69 39
54
0
43 52 47 58 39 39 56 64 74 61
55
0
44 63 40 44 53 53 41 47 42 46
56
0
47 61 54 38 39 43 53 73 52 48
57
0
47 70 41 60 54 39 49 60 37 55
58
0
65 53 49 55 40 51 47 57 44 44
59
0
46 42 56 48 42 52 55 42 58 77
60
0
51 35 51 81 51 55 60 40 52 50
61
0
36 48 49 43 53 51 60 62 51 46
62
0
52 52 51 52 39 50 42 42 48 51
63
0
48 41 42 65 64 62 46 45 43 49
64
0
53 44 62 50 50 34 52 62 46 40
65
0
52 52 48 44 45 48 33 32 45 53
66
0
39 54 55 55 45 61 67 57 55 47
67
0
54 48 40 43 61 53 56 33 50 35
68
0
47 53 34 44 60 39 73 49 47 53
69
0
58 48 69 48 54 37 62 68 63 56
70
0
52 77 46 61 67 61 31 48 61 41
71
0
61 52 39 36 57 63 58 54 52 52
72
0
40 26 42 37 47 38 60 67 49 54
73
0
39 61 63 42 51 40 54 53 55 41
74
0
50 49 56 62 36 53 33 52 57 65
75
0
41 51 44 49 62 32 69 51 42 47
76
0
60 73 82 50 46 46 56 48 56 38
77
0
56 40 59 56 38 39 65 50 56 42
78
0
45 64 65 54 46 34 48 32 59 39
79
0
62 43 70 45 52 41 47 38 54 41
80
0
45 53 55 49 55 62 39 60 55 44
81
0
34 38 52 47 50 43 65 72 48 69
82
0
40 55 38 44 60 50 42 57 52 60
83
0
39 66 33 44 62 59 56 59 50 53
84
0
44 40 40 77 34 61 35 76 60 63
85
0
60 53 44 52 64 51 48 41 50 52
86
0
44 49 54 39 45 41 42 62 49 41
87
0
55 54 70 66 46 32 62 33 72 44
88
0
67 50 55 56 55 57 47 36 35 66
89
0
57 58 54 38 42 26 50 59 41 39
90
0
51 55 54 52 59 46 27 40 39 55
91
0
72 53 61 47 35 55 65 38 57 55
92
0
48 62 52 29 41 64 56 59 49 42
93
0
63 50 56 53 30 60 56 63 43 62
94
0
39 51 44 63 62 33 59 45 46 56
95
0
49 49 58 53 48 53 45 62 35 38
96
0
65 40 48 68 53 48 44 60 44 47
97
0
65 72 45 65 59 64 41 41 47 39
98
0
47 55 53 48 48 26 43 62 55 46
99
0
51 38 76 37 64 39 58 53 52 50
