30
10
256077
0
0
30 255 40 44 16 62 54 15 58 3
1
0
44 311 50 41 36 89 43 21 58 4
2
0
43 292 34 59 25 35 42 29 49 9
3
0
31 303 31 26 22 46 30 14 47 6
4
0
23 269 31 53 18 70 34 20 48 6
5
0
23 283 34 44 19 37 51 18 54 9
6
0
29 253 26 64 24 50 53 21 58 5
7
0
28 293 45 50 32 71 43 33 61 8
8
0
24 304 52 43 33 75 37 17 55 6
9
0
25 227 34 35 23 84 50 16 48 8
10
0
21 261 32 40 15 58 32 24 44 8
11
0
26 232 40 43 22 58 46 20 61 4
12
0
20 235 37 47 31 69 34 18 46 8
13
0
28 281 29 48 16 52 40 13 39 6
14
0
20 275 31 69 22 46 39 24 52 6
15
0
22 259 42 66 22 48 56 21 43 8
16
0
36 342 33 72 27 81 34 32 38 5
17
0
20 244 41 55 26 51 49 27 55 7
18
0
18 278 43 29 20 52 30 39 56 7
19
0
19 281 34 50 30 45 35 34 27 8
20
0
25 267 20 45 25 68 54 21 51 8
21
0
19 235 36 43 25 70 36 20 41 10
22
0
21 205 35 60 14 63 27 28 47 7
23
0
21 285 50 38 33 43 45 17 39 7
24
0
28 323 37 49 25 59 44 17 50 6
25
0
23 255 20 41 19 62 41 18 51 5
26
0
18 269 35 46 23 51 52 30 43 6
27
0
22 255 36 46 27 57 42 17 41 7
28
0
19 245 25 33 20 68 56 22 44 5
29
0
31 238 44 47 23 65 52 16 38 4
