200
5
964473
0
0
67 44 40 24 53
1
0
107 37 47 42 35
2
0
79 54 47 51 41
3
0
68 50 48 22 32
4
0
123 33 41 29 34
5
0
93 59 31 30 31
6
0
99 60 46 34 50
7
0
108 35 60 34 35
8
0
119 30 42 42 35
9
0
107 36 48 28 53
10
0
79 39 44 38 43
11
0
79 66 29 44 18
12
0
70 39 51 24 34
13
0
104 46 38 29 52
14
0
94 30 48 28 35
15
0
85 32 53 28 27
16
0
79 31 47 23 38
17
0
112 36 50 34 40
18
0
78 44 27 20 25
19
0
100 51 42 39 49
20
0
80 45 46 26 27
21
0
90 45 45 30 48
22
0
76 34 57 15 27
23
0
117 24 41 34 34
24
0
118 41 65 44 49
25
0
99 41 45 23 36
26
0
110 28 52 28 37
27
0
87 62 45 29 39
28
0
114 40 41 46 47
29
0
96 50 57 36 48
30
0
130 40 37 40 26
31
0
87 25 53 50 51
32
0
104 40 55 23 28
33
0
105 29 45 22 44
34
0
113 28 44 32 39
35
0
95 37 34 20 32
36
0
102 39 60 25 31
37
0
76 63 47 39 43
38
0
94 40 47 30 44
39
0
82 39 42 24 57
40
0
110 27 35 24 27
41
0
102 46 42 44 34
42
0
96 25 45 41 35
43
0
114 34 55 35 36
44
0
137 59 41 36 28
45
0
99 59 56 30 38
46
0
96 29 31 43 49
47
0
97 47 47 34 25
48
0
86 39 37 41 27
49
0
89 44 33 44 38
50
0
88 40 38 41 49
51
0
90 31 32 18 30
52
0
93 22 47 41 39
53
0
73 29 57 41 30
54
0
109 23 25 21 56
55
0
101 36 39 22 51
56
0
91 53 34 30 43
57
0
109 38 22 22 29
58
0
93 35 45 44 37
59
0
87 37 40 20 18
60
0
48 27 36 39 45
61
0
102 37 31 45 27
62
0
106 38 39 26 31
63
0
83 45 60 32 24
64
0
76 45 36 32 21
65
0
93 45 34 41 31
66
0
101 21 52 23 41
67
0
118 47 38 23 34
68
0
107 30 51 34 29
69
0
85 38 52 35 47
70
0
82 30 38 41 26
71
0
73 36 33 26 37
72
0
100 44 52 39 23
73
0
88 41 57 18 44
74
0
97 45 58 44 36
75
0
73 39 38 28 35
76
0
104 46 32 35 33
77
0
85 28 36 22 37
78
0
109 38 42 25 27
79
0
102 26 41 28 43
80
0
99 42 37 45 30
81
0
115 51 55 32 20
82
0
101 34 53 25 48
83
0
113 35 50 24 48
84
0
77 47 62 30 29
85
0
67 38 68 36 42
86
0
83 32 34 27 31
87
0
92 39 56 36 56
88
0
102 49 47 28 39
89
0
119 42 45 26 27
90
0
89 49 54 51 26
91
0
72 48 35 20 24
92
0
103 28 37 47 40
93
0
97 50 51 48 31
94
0
104 39 64 20 35
95
0
98 28 55 28 30
96
0
93 32 29 45 34
97
0
86 36 54 15 26
98
0
57 32 44 23 34
99
0
62 28 44 21 32
100
0
138 41 43 24 40
101
0
119 34 58 30 35
102
0
116 37 50 28 41
103
0
95 37 52 30 40
104
0
80 33 66 41 18
105
0
110 52 33 35 28
106
0
113 41 26 17 29
107
0
84 51 56 21 23
108
0
99 61 41 40 32
109
0
90 51 24 27 32
110
0
86 35 70 52 28
111
0
82 35 33 30 28
112
0
78 31 45 22 48
113
0
85 46 41 37 33
114
0
97 32 59 34 29
115
0
102 42 48 41 28
116
0
76 39 47 39 31
117
0
87 31 51 27 42
118
0
108 59 37 30 46
119
0
80 38 38 37 37
120
0
93 52 38 19 30
121
0
67 39 36 44 31
122
0
96 39 44 32 20
123
0
108 39 34 25 60
124
0
106 37 39 33 26
125
0
99 44 25 30 38
126
0
92 36 60 30 35
127
0
115 57 40 33 48
128
0
94 32 37 19 35
129
0
89 37 57 25 31
130
0
133 43 60 19 36
131
0
90 30 35 40 35
132
0
115 54 52 31 28
133
0
104 31 53 21 28
134
0
72 40 43 39 40
135
0
108 36 25 27 37
136
0
78 39 43 24 30
137
0
87 33 53 19 43
138
0
100 26 34 33 30
139
0
83 59 37 28 48
140
0
66 41 41 33 35
141
0
103 53 41 35 24
142
0
90 39 48 14 40
143
0
89 62 58 30 37
144
0
82 40 40 31 34
145
0
112 33 37 19 32
146
0
89 55 50 26 25
147
0
96 36 56 27 44
148
0
154 35 47 41 27
149
0
110 40 50 32 36
150
0
95 38 22 28 31
151
0
95 50 60 28 38
152
0
82 39 33 41 31
153
0
107 33 62 27 32
154
0
88 30 48 21 18
155
0
67 43 27 29 26
156
0
69 37 37 21 51
157
0
65 33 32 37 38
158
0
91 46 38 32 29
159
0
112 32 49 17 39
160
0
105 39 47 36 30
161
0
78 50 41 36 52
162
0
83 45 47 23 38
163
0
73 23 39 39 16
164
0
101 31 46 30 42
165
0
95 41 41 38 31
166
0
89 52 39 21 28
167
0
110 53 33 46 42
168
0
92 39 40 39 32
169
0
86 32 52 37 48
170
0
106 48 41 37 34
171
0
94 54 38 20 48
172
0
84 45 38 37 28
173
0
57 38 70 32 26
174
0
86 51 50 44 43
175
0
101 38 46 28 34
176
0
99 49 49 25 56
177
0
128 51 53 42 33
178
0
86 34 49 29 27
179
0
80 40 43 38 26
180
0
71 40 49 40 50
181
0
100 37 41 36 38
182
0
116 34 40 25 34
183
0
74 53 47 31 21
184
0
68 31 53 33 32
185
0
82 41 65 31 25
186
0
113 44 37 39 42
187
0
73 56 66 26 25
188
0
96 63 48 29 30
189
0
110 67 46 16 30
190
0
69 39 42 32 62
191
0
99 36 52 36 27
192
0
98 27 40 20 29
193
0
78 43 59 26 32
194
0
66 50 29 35 38
195
0
85 50 38 26 26
196
0
111 38 42 26 23
197
0
85 40 42 29 42
198
0
87 26 29 39 35
199
0
113 41 47 26 47
