10
10
1010002
0
0
90 86 67 86 77 26 43 17 13 30 
1
0
43 57 81 54 75 4 14 34 28 66 
2
0
88 66 59 5 45 65 91 18 41 11 
3
0
55 90 72 26 90 46 90 44 23 47 
4
0
97 36 25 18 7 35 51 92 34 90 
5
0
22 26 12 23 88 60 44 21 12 7 
6
0
16 22 72 22 33 53 48 63 23 40 
7
0
72 19 46 11 96 64 41 92 57 43 
8
0
73 57 19 74 61 1 79 92 46 98 
9
0
69 79 90 79 39 10 71 14 71 39 
