50
5
5005004
0
0
17 43 55 65 23 
1
0
16 40 30 3 9 
2
0
66 99 7 69 18 
3
0
74 83 87 58 41 
4
0
16 66 10 89 10 
5
0
60 21 61 64 75 
6
0
49 45 87 86 98 
7
0
62 31 18 58 56 
8
0
23 19 59 78 23 
9
0
68 70 98 56 22 
10
0
43 35 43 99 9 
11
0
2 11 71 8 93 
12
0
88 34 38 97 25 
13
0
55 15 66 74 6 
14
0
70 72 21 89 49 
15
0
59 29 63 47 75 
16
0
35 32 9 26 44 
17
0
45 50 19 83 87 
18
0
86 86 25 13 4 
19
0
66 42 96 39 56 
20
0
97 2 99 13 29 
21
0
18 98 78 64 7 
22
0
45 52 2 39 14 
23
0
38 95 44 40 59 
24
0
67 82 94 43 57 
25
0
64 21 90 30 47 
26
0
64 43 73 12 39 
27
0
3 54 54 92 57 
28
0
45 92 74 74 31 
29
0
73 83 65 78 32 
30
0
40 90 81 74 22 
31
0
24 21 33 16 6 
32
0
29 90 57 89 45 
33
0
9 54 53 10 53 
34
0
77 37 14 12 72 
35
0
61 33 86 3 27 
36
0
56 64 86 52 43 
37
0
51 95 27 67 4 
38
0
8 68 40 60 98 
39
0
51 48 56 92 64 
40
0
61 30 95 84 64 
41
0
12 99 99 18 20 
42
0
20 72 65 7 44 
43
0
96 93 16 49 7 
44
0
8 84 94 90 55 
45
0
14 10 93 97 23 
46
0
29 90 52 89 85 
47
0
72 12 16 72 4 
48
0
47 3 67 2 31 
49
0
83 71 28 72 5 
