## Template for parameter description file for Iterated Race.
##
## The format is one parameter per line. Each line contains:
##
## 1: Name of the parameter. An unquoted alphanumeric string,
##    example: ants

## 2: Switch to pass the parameter. A quoted (possibly empty) string,
##    if the value and the switch must be separated, add a space at
##    the end of the string. Example : "--version1 --ants "

## 3: Type. An unquoted single letter, among
##     i: Integer, c: categorical, o: ordinal, r: real.

## 4: For c and o: All possible values, that is, a variable number of
##    quoted or unquoted strings separated by commas within
##    parenthesis. Empty strings and strings containing commas or
##    spaces must be quoted.
##    For i,r: a pair of unquoted numbers representing minimum and
##    maximum values.

## 5: A conditional parameter can be defined according to the values of
##    one or several other parameters.  This is done by adding a
##    character '|' followed by an R expression involving the names of
##    other parameters. This expression must return TRUE if the
##    condition is satisfied, FALSE otherwise.

# 1:            2:                   3: 4:      5:
TS.Algo                "" c (0,1,2)
Comp.Strat             "" c (0,1)
Init.Strat             "" c (0,1,2)
Neighborhood.Size      "" r (0.0, 9.999)
Neighborhood.Strat     "" c (0,1)
Aspiration             "" c (0,1)
Tabu.List.Type         "" c (0,1,2,3)
Max.Size.TL            "" i (2,10)          | Tabu.List.Type %in% c(2,3)
How.Long.Taboo         "" i (1,10)
How.Long.Rnd.Taboo     "" i (1,8)           | Tabu.List.Type == 1
Max.Stagnation.Window  "" i (1,1000)
