50
5
447955
0
0
50 32 48 49 54
1
0
47 32 45 50 56
2
0
51 39 45 50 52
3
0
48 30 48 51 53
4
0
45 37 48 52 50
5
0
53 36 48 51 52
6
0
48 34 50 53 52
7
0
52 35 49 49 53
8
0
49 33 48 48 50
9
0
46 36 48 50 53
10
0
47 34 50 51 53
11
0
49 37 54 54 53
12
0
45 36 48 52 53
13
0
50 33 48 49 51
14
0
44 36 48 48 53
15
0
48 33 51 49 52
16
0
47 34 48 53 50
17
0
46 35 48 50 52
18
0
50 32 48 48 53
19
0
49 37 50 48 49
20
0
51 33 49 49 54
21
0
51 35 48 53 53
22
0
48 34 47 52 53
23
0
51 36 49 47 56
24
0
50 34 52 50 52
25
0
53 33 45 49 51
26
0
45 33 48 49 55
27
0
54 33 52 51 55
28
0
49 36 49 47 53
29
0
49 36 53 47 53
30
0
47 34 49 49 51
31
0
54 36 45 50 53
32
0
48 36 49 49 56
33
0
46 35 48 50 52
34
0
49 35 48 51 52
35
0
48 32 54 50 51
36
0
45 36 45 51 55
37
0
47 31 52 51 55
38
0
53 35 49 51 55
39
0
48 38 49 50 53
40
0
51 36 47 51 49
41
0
49 35 51 47 52
42
0
49 37 50 51 52
43
0
47 34 48 50 52
44
0
51 35 49 47 53
45
0
48 33 53 49 52
46
0
46 36 49 51 56
47
0
51 32 48 52 51
48
0
48 36 50 50 53
49
0
52 34 46 49 53
